{
  "greeting": "Hello",
  "roleDesc": "You have a role as",
  "switchBtn": "Switch to",
  "buyer": "buyer",
  "seller": "seller",
  "buyingAction": "is buying",
  "sellingAction": "is selling",
  "tradingWith": "You are trading with",
  "releaseBTCBtn": "Release bitcoins",
  "buyBTCbtn": "Buy bitcoins",
  "numberOfTrades": "# of trads",
  "tradeStatus": "Trade status",
  "statusPaid": "Paid",
  "statusNotPaid": "Not Paid",
  "tradeHash": "Trade hash",
  "amount": "amount",
  "msgPlaceHolder": "Type your message...",
  "btnSend": "Send",
  "btnClose": "Close",
  "btnDelete": "Delete",
  "error": "Error",
  "DeleteTradePopUpTitle": "Delete Trade",
  "DeleteTradePopUpContent": "Are you sure you want to delete trade #"
}
